{
    "usuarios": [
        {
            "id": 1,
            "apellido_paterno": "Franco",
            "apellido_materno": "Gaitan",
            "nombre": "Daniel",
            "username": "Dfranco",
            "password": "12345"
        },
        {
            "id": 1,
            "apellido_paterno": "Franco",
            "apellido_materno": "Gaitan",
            "nombre": "Pablo",
            "username": "Pfranco",
            "password": "1234567"
        }
    ]
}